Designator,Val,Package,Mid X,Mid Y,Rotation,Side
C1,100n,C_0603_1608Metric_Pad1.08x0.95mm_HandSolder,-122.392500,-75.490000,180.000000,bottom
C2,100n,C_0603_1608Metric_Pad1.08x0.95mm_HandSolder,-122.390000,-77.950000,180.000000,bottom
C3,100n,C_0603_1608Metric_Pad1.08x0.95mm_HandSolder,-122.402500,-80.410000,180.000000,bottom
C4,100n,C_0603_1608Metric_Pad1.08x0.95mm_HandSolder,-122.402500,-82.910000,180.000000,bottom
C5,100n,C_0603_1608Metric_Pad1.08x0.95mm_HandSolder,-113.057500,-83.640000,90.000000,bottom
C6,100u,CP_EIA-3528-21_Kemet-B_Pad1.50x2.35mm_HandSolder,-116.502500,-83.640000,0.000000,bottom
C7,220u,CP_EIA-3528-21_Kemet-B_Pad1.50x2.35mm_HandSolder,-108.137500,-75.130000,180.000000,bottom
C8,220u,CP_EIA-3528-21_Kemet-B_Pad1.50x2.35mm_HandSolder,-108.127500,-78.490000,180.000000,bottom
C9,220u,CP_EIA-3528-21_Kemet-B_Pad1.50x2.35mm_HandSolder,-108.130000,-81.860000,180.000000,bottom
C10,220u,CP_EIA-3528-21_Kemet-B_Pad1.50x2.35mm_HandSolder,-108.137500,-85.220000,180.000000,bottom
C11,100u,CP_EIA-3528-21_Kemet-B_Pad1.50x2.35mm_HandSolder,-128.097500,-66.525000,180.000000,bottom
C12,100n,C_0603_1608Metric_Pad1.08x0.95mm_HandSolder,-129.067500,-64.095000,180.000000,bottom
C13,10u,CP_EIA-3216-18_Kemet-A_Pad1.58x1.35mm_HandSolder,-128.247500,-69.275000,180.000000,bottom
C14,10u,CP_EIA-3216-18_Kemet-A_Pad1.58x1.35mm_HandSolder,-116.272500,-69.530000,0.000000,bottom
C15,100n,C_0603_1608Metric_Pad1.08x0.95mm_HandSolder,-108.355000,-68.950000,90.000000,bottom
C16,100n,C_0603_1608Metric_Pad1.08x0.95mm_HandSolder,-112.905000,-68.950000,90.000000,bottom
C17,10u,CP_EIA-3216-18_Kemet-A_Pad1.58x1.35mm_HandSolder,-128.237500,-71.435000,180.000000,bottom
C18,10u,CP_EIA-3216-18_Kemet-A_Pad1.58x1.35mm_HandSolder,-104.992500,-69.540000,0.000000,bottom
R1,1.8k,R_0603_1608Metric_Pad0.98x0.95mm_HandSolder,-129.105000,-75.490000,180.000000,bottom
R2,1.8k,R_0603_1608Metric_Pad0.98x0.95mm_HandSolder,-129.105000,-77.950000,180.000000,bottom
R3,1.8k,R_0603_1608Metric_Pad0.98x0.95mm_HandSolder,-129.105000,-80.410000,180.000000,bottom
R4,1.8k,R_0603_1608Metric_Pad0.98x0.95mm_HandSolder,-129.115000,-82.910000,180.000000,bottom
R5,10k,R_0603_1608Metric_Pad0.98x0.95mm_HandSolder,-125.752500,-75.490000,180.000000,bottom
R6,10k,R_0603_1608Metric_Pad0.98x0.95mm_HandSolder,-125.750000,-77.950000,180.000000,bottom
R7,10k,R_0603_1608Metric_Pad0.98x0.95mm_HandSolder,-125.752500,-80.410000,180.000000,bottom
R8,10k,R_0603_1608Metric_Pad0.98x0.95mm_HandSolder,-125.760000,-82.910000,180.000000,bottom
R9,75,R_0603_1608Metric_Pad0.98x0.95mm_HandSolder,-103.802500,-76.040000,180.000000,bottom
R10,75,R_0603_1608Metric_Pad0.98x0.95mm_HandSolder,-103.800000,-79.410000,180.000000,bottom
R11,75,R_0603_1608Metric_Pad0.98x0.95mm_HandSolder,-103.805000,-82.760000,180.000000,bottom
R12,75,R_0603_1608Metric_Pad0.98x0.95mm_HandSolder,-103.810000,-86.110000,180.000000,bottom
R13,2.2k,R_0603_1608Metric_Pad0.98x0.95mm_HandSolder,-117.092500,-62.760000,180.000000,bottom
R14,10k,R_0603_1608Metric_Pad0.98x0.95mm_HandSolder,-117.092500,-64.370000,0.000000,bottom
R15,510,R_0603_1608Metric_Pad0.98x0.95mm_HandSolder,-117.095000,-67.590000,180.000000,bottom
R16,2.2k,R_0603_1608Metric_Pad0.98x0.95mm_HandSolder,-109.875000,-68.960000,90.000000,bottom
R17,10k,R_0603_1608Metric_Pad0.98x0.95mm_HandSolder,-117.092500,-65.980000,180.000000,bottom
R18,2.2k,R_0603_1608Metric_Pad0.98x0.95mm_HandSolder,-111.395000,-68.960000,-90.000000,bottom
R19,10k,R_0603_1608Metric_Pad0.98x0.95mm_HandSolder,-104.165000,-66.050000,180.000000,bottom
R20,2.2k,R_0603_1608Metric_Pad0.98x0.95mm_HandSolder,-104.155000,-62.620000,180.000000,bottom
R21,10k,R_0603_1608Metric_Pad0.98x0.95mm_HandSolder,-104.155000,-64.240000,0.000000,bottom
R22,510,R_0603_1608Metric_Pad0.98x0.95mm_HandSolder,-104.162500,-67.600000,180.000000,bottom
R23,75,R_0603_1608Metric_Pad0.98x0.95mm_HandSolder,-129.062500,-62.585000,180.000000,bottom
U1,THS7374IPWR,TSSOP-14_4.4x5mm_P0.65mm,-115.762500,-79.190000,180.000000,bottom
U2,LMV358A,SOIC-8_3.9x4.9mm_P1.27mm,-110.675000,-64.550000,180.000000,bottom
